{
    "regular-menu-settings" : {
        "button-height" : 30
    },
    "regular-menu" : [
        {
            "action-name" : "copy-file-path",
            "menu-name" : "Copy file path",
            "button-index" : 0
        },
        {
            "action-name" : "copy-folder-path",
            "menu-name" : "Copy folder path",
            "button-index" : 1
        },
        {
            "action-name" : "copy-folder-path",
            "menu-name" : "Copy folder path",
            "button-index" : 2
        },
        {
            "action-name" : "copy-folder-path",
            "menu-name" : "Copy folder path",
            "button-index" : 3
        },
        {
            "action-name" : "copy-folder-path",
            "menu-name" : "Copy folder path",
            "button-index" : 4
        }
    ],
    "radial-menu-settings" : {
        "distances" : [90],
        "radial-limits" : [
            [0,270]
        ]
    },
    "radial-menu": [
        {
            "action-name": "delete-selected-file",
            "menu-name": "Delete",
            "level-index" : 0,
            "button-index" : 0,
            "image" : "icons/rubbish-bin.svg",
            "image-hover" : "icons/rainbow_incom.jpeg"
        },
        {
            "action-name": "delete-selected-file",
            "menu-name": "Delete",
            "level-index" : 0,
            "button-index" : 1,
            "image" : "icons/rubbish-bin.svg",
            "image-hover" : "icons/rainbow_incom.jpeg"
        },
        {
            "action-name": "delete-selected-file",
            "menu-name": "Delete",
            "level-index" : 0,
            "button-index" : 2,
            "image" : "icons/rubbish-bin.svg",
            "image-hover" : "icons/rainbow_incom.jpeg"
        },
        {
            "action-name": "delete-selected-file",
            "menu-name": "Delete",
            "level-index" : 0,
            "button-index" : 3,
            "image" : "icons/rubbish-bin.svg",
            "image-hover" : "icons/rainbow_incom.jpeg"
        },
        {
            "action-name": "delete-selected-file",
            "menu-name": "Delete",
            "level-index" : 0,
            "button-index" : 4,
            "image" : "icons/rubbish-bin.svg",
            "image-hover" : "icons/rainbow_incom.jpeg"
        }
    ]
}


