<?xml version="1.0" encoding="iso-8859-1"?>
<!-- Generator: Adobe Illustrator 19.0.0, SVG Export Plug-In . SVG Version: 6.00 Build 0)  -->
<svg version="1.1" id="Capa_1" xmlns="http://www.w3.org/2000/svg" xmlns:xlink="http://www.w3.org/1999/xlink" x="0px" y="0px"
	 viewBox="0 0 512 512" style="enable-background:new 0 0 512 512;" xml:space="preserve">
<linearGradient id="SVGID_1_" gradientUnits="userSpaceOnUse" x1="256" y1="514" x2="256" y2="2" gradientTransform="matrix(1 0 0 -1 0 514)">
	<stop  offset="0" style="stop-color:#2AF598"/>
	<stop  offset="1" style="stop-color:#009EFD"/>
</linearGradient>
<path style="fill:url(#SVGID_1_);" d="M190.142,123.143l-28.284-28.285L256,0.716l94.142,94.142l-28.284,28.285L256,57.284
	L190.142,123.143z M512,60v118v78v196c0,33.084-26.916,60-60,60H60c-33.084,0-60-26.916-60-60V256v-78V60C0,26.916,26.916,0,60,0h96
	v40H60c-11.028,0-20,8.972-20,20v98h116v118h40V158h120v117h40V158h116V60c0-11.028-8.972-20-20-20h-96V0h96
	C485.084,0,512,26.916,512,60z M356,276v78h116v-78H356z M196,276v78h120v-78H196z M196,394v78h120v-78H196z M40,276v78h116v-78H40z
	 M60,472h96v-78H40v58C40,463.028,48.972,472,60,472z M472,452v-58H356v78h96C463.028,472,472,463.028,472,452z"/>
<g>
</g>
<g>
</g>
<g>
</g>
<g>
</g>
<g>
</g>
<g>
</g>
<g>
</g>
<g>
</g>
<g>
</g>
<g>
</g>
<g>
</g>
<g>
</g>
<g>
</g>
<g>
</g>
<g>
</g>
</svg>
