<?xml version="1.0" encoding="iso-8859-1"?>
<!-- Generator: Adobe Illustrator 19.0.0, SVG Export Plug-In . SVG Version: 6.00 Build 0)  -->
<svg version="1.1" id="Capa_1" xmlns="http://www.w3.org/2000/svg" xmlns:xlink="http://www.w3.org/1999/xlink" x="0px" y="0px"
	 viewBox="0 0 512 512" style="enable-background:new 0 0 512 512;" xml:space="preserve">
<linearGradient id="SVGID_1_" gradientUnits="userSpaceOnUse" x1="255.4889" y1="454.2329" x2="255.4889" y2="63.0909" gradientTransform="matrix(1.0017 0 0 -1.0017 0.0823 515.0961)">
	<stop  offset="0" style="stop-color:#2AF598"/>
	<stop  offset="1" style="stop-color:#009EFD"/>
</linearGradient>
<path style="fill:url(#SVGID_1_);" d="M251.591,451.899h42.385L163.708,74.319h-31.556L0,451.899h42.45l33.656-96.161h142.308
	L251.591,451.899z M90.13,315.671l57.642-164.693l56.819,164.693H90.13z M417.7,182.732l-94.3-94.3l28.331-28.331l65.969,65.969
	l65.969-65.969L512,88.432L417.7,182.732z"/>
<g>
</g>
<g>
</g>
<g>
</g>
<g>
</g>
<g>
</g>
<g>
</g>
<g>
</g>
<g>
</g>
<g>
</g>
<g>
</g>
<g>
</g>
<g>
</g>
<g>
</g>
<g>
</g>
<g>
</g>
</svg>
