<?xml version="1.0" encoding="iso-8859-1"?>
<!-- Generator: Adobe Illustrator 19.0.0, SVG Export Plug-In . SVG Version: 6.00 Build 0)  -->
<svg version="1.1" id="Capa_1" xmlns="http://www.w3.org/2000/svg" xmlns:xlink="http://www.w3.org/1999/xlink" x="0px" y="0px"
	 viewBox="0 0 512 512" style="enable-background:new 0 0 512 512;" xml:space="preserve">
<linearGradient id="SVGID_1_" gradientUnits="userSpaceOnUse" x1="256.2437" y1="513.889" x2="256.2437" y2="1.48" gradientTransform="matrix(0.9992 0 0 -0.9992 -0.0391 513.4788)">
	<stop  offset="0" style="stop-color:#2AF598"/>
	<stop  offset="1" style="stop-color:#009EFD"/>
</linearGradient>
<path style="fill:url(#SVGID_1_);" d="M177.452,381.758l28.261,28.261L103.732,512L0.673,410.098l28.102-28.42l54.894,54.278V76.045
	l-54.894,54.278L0.673,101.902L103.732,0l101.982,101.982l-28.261,28.261l-53.815-53.815v359.144L177.452,381.758z M511.327,118.111
	H251.535v39.968h259.792V118.111z M511.327,353.922H251.535v39.968h259.792V353.922z M511.327,236.016H251.535v39.968h259.792
	V236.016z M511.327,0.205H251.535v39.968h259.792V0.205z M511.327,471.828H251.535v39.968h259.792V471.828z"/>
<g>
</g>
<g>
</g>
<g>
</g>
<g>
</g>
<g>
</g>
<g>
</g>
<g>
</g>
<g>
</g>
<g>
</g>
<g>
</g>
<g>
</g>
<g>
</g>
<g>
</g>
<g>
</g>
<g>
</g>
</svg>
